﻿<html>
<head>
	<meta charset="utf-8">
	<base href="/">
	<style type="text/css"> 
		body {
			font-family: sans-serif;
			font-size: 0.875em;;
		}
		p {
			margin-top: 0.1em; /* Отступ сверху */
			margin-bottom: 0.1em; /* Отступ снизу */
		}
	</style>
</head>
<body>
</body>
</html>